<svg id="_.gameStyle1" data-name=".gameStyle1" xmlns="http://www.w3.org/2000/svg" xmlns:xlink="http://www.w3.org/1999/xlink" width="98" height="103" viewBox="0 0 98 103">
  <metadata><?xpacket begin="﻿" id="W5M0MpCehiHzreSzNTczkc9d"?>
<x:xmpmeta xmlns:x="adobe:ns:meta/" x:xmptk="Adobe XMP Core 5.6-c142 79.160924, 2017/07/13-01:06:39        ">
   <rdf:RDF xmlns:rdf="http://www.w3.org/1999/02/22-rdf-syntax-ns#">
      <rdf:Description rdf:about=""/>
   </rdf:RDF>
</x:xmpmeta>
                                                                                                    
                                                                                                    
                                                                                                    
                                                                                                    
                                                                                                    
                                                                                                    
                                                                                                    
                                                                                                    
                                                                                                    
                                                                                                    
                                                                                                    
                                                                                                    
                                                                                                    
                                                                                                    
                                                                                                    
                                                                                                    
                                                                                                    
                                                                                                    
                                                                                                    
                                                                                                    
                           
<?xpacket end="w"?></metadata>
<defs>
    <style>
      .cls-1 {
        fill: #d6d6d6;
      }

      .cls-2 {
        fill: #8e8e8e;
      }

      .cls-3 {
        fill: #5e5e5e;
      }
    </style>
  </defs>
  <g id="_.bg" data-name=".bg">
    <image id="Background_copy" data-name="Background copy" width="98" height="103" xlink:href="data:img/png;base64,iVBORw0KGgoAAAANSUhEUgAAAGIAAABnAQAAAADTE6oQAAAABGdBTUEAALGPC/xhBQAAACBjSFJNAAB6JgAAgIQAAPoAAACA6AAAdTAAAOpgAAA6mAAAF3CculE8AAAAAmJLR0QAAKqNIzIAAAAJcEhZcwAACxIAAAsSAdLdfvwAAAAHdElNRQfiAgYTJDl4fmgSAAAAGUlEQVQ4y2P4jwQOMIzyRnmjvFHeKG/Q8ACB3hy4ErkiNgAAAABJRU5ErkJggg=="/>
  </g>
  <g id="_.content" data-name=".content">
    <g id="_.text" data-name=".text">
      <rect id="Rectangle_1_copy_6" data-name="Rectangle 1 copy 6" class="cls-1" x="4" y="90" width="64.063" height="2"/>
      <rect id="Rectangle_1_copy_3" data-name="Rectangle 1 copy 3" class="cls-1" x="4" y="85" width="90" height="2"/>
      <rect id="Rectangle_1_copy_2" data-name="Rectangle 1 copy 2" class="cls-1" x="4" y="80" width="90" height="2"/>
    </g>
    <g id="_.detail" data-name=".detail">
      <rect id="Rectangle_1_copy_2-2" data-name="Rectangle 1 copy 2" class="cls-1" x="4" y="97" width="45" height="2"/>
      <rect id="Rectangle_1_copy_4" data-name="Rectangle 1 copy 4" class="cls-1" x="84" y="97" width="10" height="2"/>
    </g>
    <g id="_.title" data-name=".title">
      <rect id="Rectangle_1_copy_5" data-name="Rectangle 1 copy 5" class="cls-2" x="4" y="71" width="73" height="3"/>
      <rect id="Rectangle_1_copy_7" data-name="Rectangle 1 copy 7" class="cls-2" x="4" y="65" width="90" height="3"/>
    </g>
  </g>
  <g id="_.image" data-name=".image">
    <rect id="Rectangle_1_copy" data-name="Rectangle 1 copy" class="cls-3" x="4" y="4" width="90" height="55"/>
  </g>
</svg>
